{
    "6": {
        "law": "Art. 144. 1 kw: Kto na terenach przeznaczonych do użytku publicznego niszczy lub uszkadza roślinność [...] podlega karze grzywny do 1.000 złotych albo karze nagany.",
        "price": "do 1000 zł",
        "stopAgresjiOnly": false,
        "title": "niszczył zieleń",
        "disabled": true
    },
    "25": {
        "law": "Art. 144. 1 kw: Kto na terenach przeznaczonych do użytku publicznego niszczy lub uszkadza roślinność [...] podlega karze grzywny do 1.000 złotych albo karze nagany.",
        "price": "do 1000 zł",
        "stopAgresjiOnly": false,
        "title": "niszczył zieleń"
    },
    "11": {
        "law": "Art. 47. 1 prd: Dopuszcza się zatrzymanie lub postój na drodze dla pieszych kołami jednego boku lub przedniej osi pojazdu samochodowego o dopuszczalnej masie całkowitej nie przekraczającej 2,5 t; art. 47. 2 prd: Dopuszcza się, przy zachowaniu warunków określonych w ust. 1 pkt 2, zatrzymanie lub postój na drodze dla pieszych przy krawędzi jezdni całego samochodu osobowego, motocykla, motoroweru lub roweru. Inny pojazd o dopuszczalnej masie całkowitej nie przekraczającej 2,5 t może być w całości umieszczony na drodze dla pieszych tylko w miejscu wyznaczonym odpowiednimi znakami drogowymi.",
        "price": "100 zł",
        "stopAgresjiOnly": false,
        "title": "znajdował się na chodniku mając ponad 2,5 t DMC"
    }
}