{
  "active": [
    26,
    57,
    413,
    718,
    956,
    1877,
    2610,
    3706,
    3821,
    4953,
    4960,
    4979,
    5034,
    5116,
    5147,
    5263,
    5391,
    5962,
    5994,
    6618,
    7268,
    8702,
    8848,
    9307,
    10135,
    10171,
    10558,
    11102,
    11175,
    11900,
    11947,
    12086,
    12973,
    13254,
    13481,
    13842,
    14302,
    14444,
    14585,
    14633,
    14688,
    15240,
    15624,
    15630,
    16109,
    16140,
    16590,
    17008,
    17231,
    17322,
    17403,
    17442,
    17510,
    17540,
    17791,
    17842,
    18066,
    18181,
    18319,
    18582,
    18696,
    18908,
    18949,
    19114,
    19571,
    19596,
    20701,
    20840,
    20861,
    21023,
    21134,
    21219
  ],
  "inactive": [
    3,
    258,
    1099,
    1888,
    2000,
    2750,
    3391,
    4286,
    10579,
    11632,
    13382,
    13857,
    14133,
    14889,
    15394,
    16310,
    16311,
    16690,
    17205,
    17448,
    17458,
    17773,
    18581,
    21134
  ]
}
