{
  "draft": {
    "name": "Draft",
    "action": null,
    "icon": "edit",
    "allowed": ["ready"],
    "comment": "Stworzenie zgłoszenia",
    "editable": true,
    "sendable": false
  },
  "ready": {
    "name": "Edycja",
    "action": null,
    "icon": "shop",
    "allowed": ["draft", "confirmed", "ready"],
    "comment": "Zapisanie wersji roboczej",
    "editable": true,
    "sendable": false
  },
  "confirmed": {
    "name": "Nowe",
    "action": "Zgłoszenie gotowe do wysłania",
    "icon": "cloud",
    "allowed": ["ready", "sending", "sending-problem", "sending-failed", "confirmed-waiting", "archived"],
    "comment": "Zapisanie gotowego zgłoszenia",
    "editable": true,
    "sendable": true
  },
  "sending": {
    "name": "Wysyłam",
    "action": null,
    "icon": "mail",
    "allowed": ["sending-problem", "sending-failed", "confirmed-waiting", "archived"],
    "comment": "Wysyłka w trakcie",
    "editable": false,
    "sendable": false
  },
  "sending-problem": {
    "name": "Problem z wysyłką",
    "action": null,
    "icon": "mail",
    "allowed": ["sending-failed", "confirmed-waiting", "archived"],
    "comment": "Tymczasowy problem z wysyłką",
    "editable": false,
    "sendable": false
  },
  "sending-failed": {
    "name": "Niewysłane",
    "action": null,
    "icon": "mail",
    "allowed": ["sending", "sending-problem", "confirmed-waiting", "archived"],
    "comment": "Nie udało się wysłać wiadomości",
    "editable": false,
    "sendable": true
  },
  "confirmed-waiting": {
    "name": "Wysłane",
    "action": "Zgłoszenie zostało wysłane",
    "icon": "mail",
    "allowed": ["confirmed-sm", "confirmed-fined", "confirmed-instructed", "confirmed-ignored", "archived"],
    "comment": "Wysłanie zgłoszenia",
    "editable": false,
    "sendable": false
  },
  "confirmed-waitingE": {
    "name": "Wysłane epuap",
    "action": null,
    "icon": "clock",
    "allowed": ["confirmed-sm", "confirmed-fined", "confirmed-instructed", "confirmed-ignored", "archived"],
    "comment": "Wysłanie zgłoszenia za pomocą EPUAP",
    "editable": false,
    "sendable": false
  },
  "confirmed-sm": {
    "name": "Potwierdzone",
    "action": "Zgłoszenie zostało potwierdzone w SM",
    "icon": "user",
    "allowed": ["confirmed-fined", "confirmed-instructed", "confirmed-ignored", "archived"],
    "comment": "Potwierdzenie przyjęcia zgłoszenia przez/w SM",
    "editable": false,
    "sendable": false
  },
  "confirmed-fined": {
    "name": "Mandat",
    "action": "Kierowca dostał mandat",
    "icon": "check",
    "allowed": ["confirmed-instructed", "confirmed-ignored", "archived"],
    "comment": "Kierowca został ukarany mandatem",
    "editable": false,
    "sendable": false
  },
  "confirmed-instructed": {
    "name": "Pouczenie",
    "action": "Kierowca został pouczony",
    "icon": "audio",
    "allowed": ["confirmed-fined", "confirmed-ignored", "archived"],
    "comment": "Kierowca został pouczony",
    "editable": false,
    "sendable": false
  },
  "confirmed-ignored": {
    "name": "Zignorowane",
    "action": "Nie ukarano ani nie pouczono kierowcy",
    "icon": "delete",
    "allowed": ["confirmed-fined", "confirmed-instructed", "archived"],
    "comment": "Zgłoszenie zostało zignorowane, nie wskazany ",
    "editable": false,
    "sendable": false
  },
  "archived": {
    "name": "W archiwum",
    "action": "Przenieś do archiwum",
    "icon": "minus",
    "allowed": ["confirmed", "confirmed-waiting"],
    "comment": "Zgłoszenie zostało zarchiwizowane",
    "editable": false,
    "sendable": false,
    "confirmationNeeded": true
  }
}
